Copyright 1986-2018 Xilinx, Inc. All Rights Reserved.
---------------------------------------------------------------------------------------------------------------------------------------------------------------------------------------------
| Tool Version : Vivado v.2018.2.2 (lin64) Build 2348494 Mon Oct  1 18:25:39 MDT 2018
| Date         : Mon Dec 10 12:07:56 2018
| Host         : HAL running 64-bit unknown
| Command      : report_bus_skew -warn_on_violation -file block_design_wrapper_bus_skew_routed.rpt -pb block_design_wrapper_bus_skew_routed.pb -rpx block_design_wrapper_bus_skew_routed.rpx
| Design       : block_design_wrapper
| Device       : 7z010-clg400
| Speed File   : -1  PRODUCTION 1.11 2014-09-11
---------------------------------------------------------------------------------------------------------------------------------------------------------------------------------------------

Bus Skew Report

No bus skew constraints

